[gd_scene load_steps=2 format=2]

[ext_resource path="res://sprites/memory-ui.png" type="Texture" id=1]

[node name="Gem" type="Control"]
margin_right = 48.0
margin_bottom = 48.0
__meta__ = {
"_edit_use_anchors_": false
}

[node name="Sprite" type="Sprite" parent="."]
texture = ExtResource( 1 )
centered = false
vframes = 2
hframes = 3
