[gd_scene load_steps=6 format=2]

[ext_resource path="res://other/ui.theme" type="Theme" id=1]
[ext_resource path="res://sprites/arrow.png" type="Texture" id=2]
[ext_resource path="res://scripts/menu_button.gd" type="Script" id=3]

[sub_resource type="Animation" id=1]
resource_name = "mouse_off"
length = 0.4
tracks/0/type = "value"
tracks/0/path = NodePath("ColorRect:rect_size")
tracks/0/interp = 1
tracks/0/loop_wrap = true
tracks/0/imported = false
tracks/0/enabled = true
tracks/0/keys = {
"times": PoolRealArray( 0, 0.3 ),
"transitions": PoolRealArray( 1, 1 ),
"update": 0,
"values": [ Vector2( 70, 72 ), Vector2( 0, 72 ) ]
}
tracks/1/type = "value"
tracks/1/path = NodePath("Sprite:position")
tracks/1/interp = 1
tracks/1/loop_wrap = true
tracks/1/imported = false
tracks/1/enabled = true
tracks/1/keys = {
"times": PoolRealArray( 0, 0.3 ),
"transitions": PoolRealArray( 1, 1 ),
"update": 0,
"values": [ Vector2( 70, 0 ), Vector2( 0, 0 ) ]
}
tracks/2/type = "value"
tracks/2/path = NodePath(".:rect_size")
tracks/2/interp = 1
tracks/2/loop_wrap = true
tracks/2/imported = false
tracks/2/enabled = true
tracks/2/keys = {
"times": PoolRealArray( 0, 0.3 ),
"transitions": PoolRealArray( 1, 1 ),
"update": 0,
"values": [ Vector2( 142, 72 ), Vector2( 72, 72 ) ]
}
tracks/3/type = "method"
tracks/3/path = NodePath(".")
tracks/3/interp = 1
tracks/3/loop_wrap = true
tracks/3/imported = false
tracks/3/enabled = true
tracks/3/keys = {
"times": PoolRealArray( 0.3 ),
"transitions": PoolRealArray( 1 ),
"values": [ {
"args": [  ],
"method": "_on_expand_finished"
} ]
}

[sub_resource type="Animation" id=2]
length = 0.4
tracks/0/type = "value"
tracks/0/path = NodePath("ColorRect:rect_size")
tracks/0/interp = 1
tracks/0/loop_wrap = true
tracks/0/imported = false
tracks/0/enabled = true
tracks/0/keys = {
"times": PoolRealArray( 0, 0.3 ),
"transitions": PoolRealArray( 1, 1 ),
"update": 0,
"values": [ Vector2( 0, 72 ), Vector2( 70, 72 ) ]
}
tracks/1/type = "value"
tracks/1/path = NodePath("Sprite:position")
tracks/1/interp = 1
tracks/1/loop_wrap = true
tracks/1/imported = false
tracks/1/enabled = true
tracks/1/keys = {
"times": PoolRealArray( 0, 0.3 ),
"transitions": PoolRealArray( 1, 1 ),
"update": 0,
"values": [ Vector2( 0, 0 ), Vector2( 70, 0 ) ]
}
tracks/2/type = "value"
tracks/2/path = NodePath(".:rect_size")
tracks/2/interp = 1
tracks/2/loop_wrap = true
tracks/2/imported = false
tracks/2/enabled = true
tracks/2/keys = {
"times": PoolRealArray( 0, 0.3 ),
"transitions": PoolRealArray( 1, 1 ),
"update": 0,
"values": [ Vector2( 72, 72 ), Vector2( 142, 72 ) ]
}
tracks/3/type = "method"
tracks/3/path = NodePath(".")
tracks/3/interp = 1
tracks/3/loop_wrap = true
tracks/3/imported = false
tracks/3/enabled = true
tracks/3/keys = {
"times": PoolRealArray( 0.3 ),
"transitions": PoolRealArray( 1 ),
"values": [ {
"args": [  ],
"method": "_on_expand_finished"
} ]
}

[node name="Menu" type="Button"]
anchor_right = 1.0
anchor_bottom = 1.0
margin_right = -1208.0
margin_bottom = -648.0
rect_min_size = Vector2( 72, 72 )
theme = ExtResource( 1 )
shortcut_in_tooltip = false
flat = true
script = ExtResource( 3 )
__meta__ = {
"_edit_use_anchors_": false
}

[node name="Sprite" type="Sprite" parent="."]
scale = Vector2( 1.5, 1.5 )
texture = ExtResource( 2 )
centered = false
hframes = 3

[node name="Label" type="Label" parent="Sprite"]
margin_top = 6.0
margin_right = 42.0
margin_bottom = 42.0
custom_colors/font_color = Color( 0.188235, 0.188235, 0.188235, 1 )
text = "Menu"
align = 1
valign = 1
__meta__ = {
"_edit_use_anchors_": false
}

[node name="ColorRect" type="ColorRect" parent="."]
margin_bottom = 72.0
rect_min_size = Vector2( 0, 72 )
__meta__ = {
"_edit_use_anchors_": false
}

[node name="AnimationPlayer" type="AnimationPlayer" parent="."]
anims/mouse_off = SubResource( 1 )
anims/mouse_on = SubResource( 2 )
[connection signal="mouse_entered" from="." to="." method="_on_mouse_entered"]
[connection signal="mouse_exited" from="." to="." method="_on_mouse_exited"]
[connection signal="pressed" from="." to="." method="_on_click"]
